{
	"default": {
		"sapBrandColor": "#000",
		"sapHighlightColor": "#000",
		"sapBaseColor": "#fff",
		"sapShellColor": "transparent",
		"sapBackgroundColor": "#fff",
		"sapFontFamily": "Arial, Helvetica, sans-serif",
		"sapFontSize": "0.75em",
		"sapTextColor": "#333",
		"sapLinkColor": "#7d7d7d",
		"sapCompanyLogo": "none",
		"sapBackgroundImage": "none",
		"sapBackgroundImageOpacity": "1.0",
		"sapBackgroundImageRepeat": "false",
		"sapSelectedColor": "#000",
		"sapActiveColor": "#000",
		"sapHighlightTextColor": "#333",
		"sapTitleColor": "#000",
		"sapNegativeColor": "#e35500",
		"sapCriticalColor": "#e78c07",
		"sapPositiveColor": "#4fb81e",
		"sapNeutralColor": "#5e696e",
		"sapNegativeElementColor": "#e35500",
		"sapCriticalElementColor": "#e78c07",
		"sapPositiveElementColor": "#4fb81e",
		"sapNeutralElementColor": "#5e696e",
		"sapContent_LineHeight": "1.3",
		"sapContent_ElementHeight": "1.37em",
		"sapContent_ElementHeight_PX": "22px",
		"sapContent_IconHeight": "16px",
		"sapContent_IconColor": "#000",
		"sapContent_ContrastIconColor": "#fff",
		"sapContent_NonInteractiveIconColor": "#878787",
		"sapContent_MarkerIconColor": "#a3a3a3",
		"sapContent_FocusColor": "#000",
		"sapContent_ContrastFocusColor": "#dfdfdf",
		"sapContent_ShadowColor": "#000",
		"sapContent_ContrastShadowColor": "#fff",
		"sapContent_SearchHighlightColor": "#d4f7db",
		"sapContent_HelpColor": "#3f8600",
		"sapContent_LabelColor": "#666",
		"sapContent_MonospaceFontFamily": "lucida console, monospace",
		"sapContent_DisabledTextColor": "rgba(51,51,51,0.5)",
		"sapContent_DisabledOpacity": "0.5",
		"sapContent_ContrastTextThreshold": "0",
		"sapContent_ContrastTextColor": "#fff",
		"sapContent_ForegroundColor": "#e5e5e5",
		"sapContent_ForegroundBorderColor": "rgba(191,191,191, 0)",
		"sapContent_ForegroundTextColor": "#333",
		"sapShell_Background": "#fff",
		"sapShell_BackgroundImage": "linear-gradient(to bottom left, #f2f2f2, #fff)",
		"sapShell_BackgroundGradient": "linear-gradient(to bottom left, #f2f2f2, #fff)",
		"sapShell_BackgroundImageOpacity": "1.0",
		"sapShell_BackgroundImageRepeat": "false",
		"sapShell_BorderColor": "transparent",
		"sapShell_TextColor": "#000",
		"sapShell_Favicon": "none",
		"sapButton_BorderWidth": "1px",
		"sapButton_BorderCornerRadius": "0px",
		"sapButton_Background": "#fff",
		"sapButton_BorderColor": "#000",
		"sapButton_TextColor": "#333",
		"sapButton_Disabled_Background": "lime",
		"sapButton_Disabled_BorderColor": "lime",
		"sapButton_Disabled_TextColor": "lime",
		"sapButton_Hover_Background": "#000",
		"sapButton_Hover_BorderColor": "#000",
		"sapButton_Hover_TextColor": "#fff",
		"sapButton_Emphasized_Background": "#fff",
		"sapButton_Emphasized_BorderColor": "#000",
		"sapButton_Emphasized_TextColor": "#000",
		"sapButton_Reject_Background": "#fff",
		"sapButton_Accept_Background": "#fff",
		"sapField_Background": "#ccc",
		"sapField_BorderColor": "transparent",
		"sapField_TextColor": "#000",
		"sapField_HelpBackground": "#ccc",
		"sapField_BorderWidth": "1px",
		"sapField_BorderCornerRadius": "0",
		"sapField_Hover_Background": "#ccc",
		"sapField_Hover_BorderColor": "#000",
		"sapField_Hover_HelpBackground": "#000",
		"sapField_Focus_Background": "#ccc",
		"sapField_Focus_BorderColor": "transparent",
		"sapField_Focus_HelpBackground": "#ccc",
		"sapField_Disabled_Background": "lime",
		"sapField_Disabled_BorderColor": "lime",
		"sapField_Disabled_TextColor": "rgba(0,0,0,0.5)",
		"sapField_Disabled_HelpBackground": "lime",
		"sapField_ReadOnly_Background": "rgba(191,191,191,0.5)",
		"sapField_ReadOnly_BorderColor": "transparent",
		"sapField_ReadOnly_HelpBackground": "rgba(191,191,191,0.5)",
		"sapField_RequiredColor": "#c14646",
		"sapField_InvalidColor": "#ff6e17",
		"sapField_InvalidBackground": "#ccc",
		"sapField_WarningColor": "#f9a429",
		"sapField_WarningBackground": "#ccc",
		"sapField_SuccessColor": "#64dd2c",
		"sapField_SuccessBackground": "#ccc",
		"sapGroup_TitleBackground": "transparent",
		"sapGroup_TitleBorderColor": "rgba(204,204,204, 0)",
		"sapGroup_TitleTextColor": "#000",
		"sapGroup_Title_FontSize": "1.0em",
		"sapGroup_ContentBackground": "#fff",
		"sapGroup_ContentBorderColor": "rgba(235,235,235, 0)",
		"sapGroup_BorderWidth": "1px",
		"sapGroup_BorderCornerRadius": "0",
		"sapGroup_FooterBackground": "transparent",
		"sapToolbar_Background": "transparent",
		"sapToolbar_SeparatorColor": "rgba(255,255,255, 0.2)",
		"sapList_HeaderBackground": "#fff",
		"sapList_HeaderBorderColor": "rgba(0,0,0, 0.07)",
		"sapList_HeaderTextColor": "#000",
		"sapList_BorderColor": "rgba(0,0,0, 0.07)",
		"sapList_BorderWidth": "1px",
		"sapList_HighlightColor": "#000",
		"sapList_SelectionBackgroundColor": "#cacaca",
		"sapList_Background": "#f2f2f2",
		"sapList_Hover_Background": "#e3e3e3",
		"sapScrollBar_FaceColor": "#e6e6e6",
		"sapScrollBar_TrackColor": "#fff",
		"sapScrollBar_BorderColor": "#ffffff",
		"sapScrollBar_SymbolColor": "#000",
		"sapScrollBar_Dimension": "16px",
		"sapScrollBar_Hover_FaceColor": "#dedede",
		"sapPageHeader_Background": "#fff",
		"sapPageHeader_BorderColor": "#333333",
		"sapPageHeader_TextColor": "#666",
		"sapPageFooter_Background": "#e9e9e9",
		"sapPageFooter_TextColor": "#333",
		"sapInfobar_Background": "#666666",
		"sapObjectHeader_Background": "#fff",
		"sapBlockLayer_Background": "#000",
		"sapTile_Background": "#dfdfdf",
		"sapTile_BorderColor": "transparent",
		"sapTile_TitleTextColor": "#333",
		"sapTile_TextColor": "#666",
		"sapTile_IconColor": "#575757",
		"sapChart_OrderedColor_1": "#5cbae6",
		"sapChart_OrderedColor_2": "#b6d957",
		"sapChart_OrderedColor_3": "#fac364",
		"sapChart_OrderedColor_4": "#8cd3ff",
		"sapChart_OrderedColor_5": "#d998cb",
		"sapChart_OrderedColor_6": "#f2d249",
		"sapChart_OrderedColor_7": "#93b9c6",
		"sapChart_OrderedColor_8": "#ccc5a8",
		"sapChart_OrderedColor_9": "#52bacc",
		"sapChart_OrderedColor_10": "#dbdb46",
		"sapChart_OrderedColor_11": "#98aafb",
		"sapChart_Bad": "#e35500",
		"sapChart_Critical": "#de890d",
		"sapChart_Good": "#4fb81e",
		"sapChart_Neutral": "#848f94",
		"sapChart_Sequence_1": "#27a3dd",
		"sapChart_Sequence_2": "#9dc62d",
		"sapChart_Sequence_3": "#f8ac29",
		"sapChart_Sequence_Neutral": "#848f94",
		"sapUiBrand": "#000",
		"sapUiHighlight": "#000",
		"sapUiBaseColor": "#fff",
		"sapUiShellColor": "transparent",
		"sapUiBaseBG": "#fff",
		"sapUiGlobalBackgroundColor": "#fff",
		"sapUiBaseText": "#333",
		"sapUiLink": "#7d7d7d",
		"sapUiGlobalLogo": "none",
		"sapUiGlobalBackgroundImage": "none",
		"sapUiBackgroundImage": "none",
		"sapUiUx3ShellBackgroundImageURL": "none",
		"sapUiGlobalBackgroundImageOpacity": "1.0",
		"sapUiGlobalBackgroundRepeat": "false",
		"sapUiSelected": "#000",
		"sapUiActive": "#000",
		"sapUiHighlightTextColor": "#333",
		"sapUiTextTitle": "#000",
		"sapUiContentIconColor": "#000",
		"sapUiContentContrastIconColor": "#fff",
		"sapUiContentNonInteractiveIconColor": "#878787",
		"sapUiContentMarkerIconColor": "#a3a3a3",
		"sapUiContentMarkerTextColor": "#4974bc",
		"sapUiContentImagePlaceholderBackground": "#e8e8e8",
		"sapUiContentImagePlaceholderForegroundColor": "#fff",
		"sapUiContentFocusColor": "#000",
		"sapUiContentContrastFocusColor": "#dfdfdf",
		"sapUiContentShadowColor": "#000",
		"sapUiContentContrastShadowColor": "#fff",
		"sapUiContentSearchHighlightColor": "#d4f7db",
		"sapUiContentHelpColor": "#3f8600",
		"sapUiContentLabelColor": "#666",
		"sapUiContentDisabledTextColor": "rgba(51,51,51,0.5)",
		"sapUiContentDisabledOpacity": "0.5",
		"sapUiContentContrastTextThreshold": "0",
		"sapUiContentContrastTextColor": "#fff",
		"sapUiContentForegroundColor": "#e5e5e5",
		"sapUiContentForegroundBorderColor": "rgba(191,191,191, 0)",
		"sapUiContentForegroundTextColor": "#333",
		"sapUiShellBackground": "#fff",
		"sapUiShellBackgroundImage": "linear-gradient(to bottom left, #f2f2f2, #fff)",
		"sapUiShellBackgroundImageOpacity": "1.0",
		"sapUiShellBackgroundImageRepeat": "false",
		"sapUiShellBackgroundGradient": "linear-gradient(to bottom left, #f2f2f2, #fff)",
		"sapUiShellBorderColor": "transparent",
		"sapUiShellTextColor": "#000",
		"sapUiShellFavicon": "none",
		"sapUiButtonBackground": "#fff",
		"sapUiButtonBorderColor": "#000",
		"sapUiButtonTextColor": "#333",
		"sapUiButtonDisabledBackground": "lime",
		"sapUiButtonDisabledBorderColor": "lime",
		"sapUiButtonDisabledTextColor": "lime",
		"sapUiButtonHoverBackground": "#000",
		"sapUiButtonHoverBorderColor": "#000",
		"sapUiButtonHoverTextColor": "#fff",
		"sapUiButtonEmphasizedBackground": "#fff",
		"sapUiButtonEmphasizedBorderColor": "#000",
		"sapUiButtonEmphasizedTextColor": "#000",
		"sapUiButtonRejectBackground": "#fff",
		"sapUiButtonAcceptBackground": "#fff",
		"sapUiFieldBackground": "#ccc",
		"sapUiFieldBorderColor": "transparent",
		"sapUiFieldTextColor": "#000",
		"sapUiFieldHelpBackground": "#ccc",
		"sapUiFieldHoverBackground": "#ccc",
		"sapUiFieldHoverBorderColor": "#000",
		"sapUiFieldHoverHelpBackground": "#000",
		"sapUiFieldFocusBackground": "#ccc",
		"sapUiFieldFocusBorderColor": "transparent",
		"sapUiFieldFocusHelpBackground": "#ccc",
		"sapUiFieldReadOnlyBackground": "rgba(191,191,191,0.5)",
		"sapUiFieldReadOnlyBorderColor": "transparent",
		"sapUiFieldReadOnlyHelpBackground": "rgba(191,191,191,0.5)",
		"sapUiFieldDisabledBackground": "lime",
		"sapUiFieldDisabledBorderColor": "lime",
		"sapUiFieldDisabledTextColor": "rgba(0,0,0,0.5)",
		"sapUiFieldDisabledHelpBackground": "lime",
		"sapUiFieldRequiredColor": "#c14646",
		"sapUiFieldInvalidColor": "#ff6e17",
		"sapUiFieldInvalidBackground": "#ccc",
		"sapUiFieldWarningColor": "#f9a429",
		"sapUiFieldWarningBackground": "#ccc",
		"sapUiFieldSuccessColor": "#64dd2c",
		"sapUiFieldSuccessBackground": "#ccc",
		"sapUiGroupTitleBackground": "transparent",
		"sapUiGroupTitleBorderColor": "rgba(204,204,204, 0)",
		"sapUiGroupTitleTextColor": "#000",
		"sapUiGroupContentBackground": "#fff",
		"sapUiGroupContentBorderColor": "rgba(235,235,235, 0)",
		"sapUiGroupFooterBackground": "transparent",
		"sapUiToolbarBackground": "transparent",
		"sapUiToolbarSeparatorColor": "rgba(255,255,255, 0.2)",
		"sapUiListHeaderBackground": "#fff",
		"sapUiListHeaderBorderColor": "rgba(0,0,0, 0.07)",
		"sapUiListHeaderTextColor": "#000",
		"sapUiListBorderColor": "rgba(0,0,0, 0.07)",
		"sapUiListHighlightColor": "#000",
		"sapUiListSelectionBackgroundColor": "#cacaca",
		"sapUiListBackground": "#f2f2f2",
		"sapUiListHoverBackground": "#e3e3e3",
		"sapUiScrollBarFaceColor": "#e6e6e6",
		"sapUiScrollBarTrackColor": "#fff",
		"sapUiScrollBarBorderColor": "#ffffff",
		"sapUiScrollBarSymbolColor": "#000",
		"sapUiScrollBarHoverFaceColor": "#dedede",
		"sapUiPageHeaderBackground": "#fff",
		"sapUiPageHeaderBorderColor": "#333333",
		"sapUiPageHeaderTextColor": "#666",
		"sapUiPageFooterBackground": "#e9e9e9",
		"sapUiPageFooterTextColor": "#333",
		"sapUiInfobarBackground": "#666666",
		"sapUiObjectHeaderBackground": "#fff",
		"sapUiBlockLayerBackground": "#000",
		"sapUiTileBackground": "#dfdfdf",
		"sapUiTileBorderColor": "transparent",
		"sapUiTileTitleTextColor": "#333",
		"sapUiTileTextColor": "#666",
		"sapUiTileIconColor": "#575757",
		"sapUiChart1": "#5cbae6",
		"sapUiChart2": "#b6d957",
		"sapUiChart3": "#fac364",
		"sapUiChart4": "#8cd3ff",
		"sapUiChart5": "#d998cb",
		"sapUiChart6": "#f2d249",
		"sapUiChart7": "#93b9c6",
		"sapUiChart8": "#ccc5a8",
		"sapUiChart9": "#52bacc",
		"sapUiChart10": "#dbdb46",
		"sapUiChart11": "#98aafb",
		"sapUiChartBad": "#e35500",
		"sapUiChartCritical": "#de890d",
		"sapUiChartGood": "#4fb81e",
		"sapUiChartNeutral": "#848f94",
		"sapUiChartSequence1": "#27a3dd",
		"sapUiChartSequence2": "#9dc62d",
		"sapUiChartSequence3": "#f8ac29",
		"sapUiChartSequenceNeutral": "#848f94",
		"sapUiAccent1": "#e09d00",
		"sapUiAccent2": "#e6600d",
		"sapUiAccent3": "#c14646",
		"sapUiAccent4": "#ab218e",
		"sapUiAccent5": "#678bc7",
		"sapUiAccent6": "#0092d1",
		"sapUiAccent7": "#1a9898",
		"sapUiAccent8": "#759421",
		"sapUiErrorBG": "#fff",
		"sapUiWarningBG": "#fef0db",
		"sapUiSuccessBG": "#fff",
		"sapUiNeutralBG": "#f4f5f6",
		"sapUiErrorBorder": "#ff6e17",
		"sapUiWarningBorder": "#f9a429",
		"sapUiSuccessBorder": "#64dd2c",
		"sapUiNeutralBorder": "#5e696e",
		"sapUiNegativeElement": "#e35500",
		"sapUiCriticalElement": "#e78c07",
		"sapUiPositiveElement": "#4fb81e",
		"sapUiNeutralElement": "#5e696e",
		"sapUiNegativeText": "#e35500",
		"sapUiCriticalText": "#e78c07",
		"sapUiPositiveText": "#4fb81e",
		"sapUiNeutralText": "#5e696e",
		"sapUiNegative": "#e35500",
		"sapUiCritical": "#e78c07",
		"sapUiPositive": "#4fb81e",
		"sapUiNeutral": "#5e696e",
		"sapUiErrorColor": "#ff6e17",
		"sapUiWarningColor": "#f9a429",
		"sapUiSuccessColor": "#64dd2c",
		"sapUiFontFamily": "Arial, Helvetica, sans-serif",
		"sapUiFontSize": "16px",
		"sapUiFontCondensedFamily": "'Arial Narrow', HelveticaNeue-CondensedBold, Arial, sans-serif",
		"sapUiFontHeaderFamily": "Arial, Helvetica, sans-serif",
		"sapUiFontHeaderWeight": "normal",
		"sapMFontHeader1Size": "1.625rem",
		"sapMFontHeader2Size": "1.375rem",
		"sapMFontHeader3Size": "1.250rem",
		"sapMFontHeader4Size": "1.125rem",
		"sapMFontHeader5Size": "1rem",
		"sapMFontHeader6Size": "0.875rem",
		"sapMFontSmallSize": "0.75rem",
		"sapMFontMediumSize": "0.875rem",
		"sapMFontLargeSize": "1rem",
		"sapUiTranslucentBGOpacity": "0",
		"sapMPlatformDependent": "false",
		"sapUiDesktopFontFamily": "Arial, Helvetica, sans-serif",
		"sapUiDesktopFontSize": "12px",
		"sapUiFontLargeSize": "13px",
		"sapUiFontSmallSize": "11px",
		"sapUiFontHeader1Size": "26px",
		"sapUiFontHeader2Size": "20px",
		"sapUiFontHeader3Size": "18px",
		"sapUiFontHeader4Size": "16px",
		"sapUiFontHeader5Size": "14px",
		"sapUiFontHeader6Size": "13px",
		"sapUiLineHeight": "18px",
		"sapUiChartLabelHoverColor": "#000",
		"sapUiChartLabelPressedColor": "#d4d4d4",
		"sapUiChartCategoryAxisLabelFontColor": "#333",
		"sapUiChartValueAxisLabelFontColor": "#707070",
		"sapUiChartCategoryAxisLabelFontSize": "0.75rem",
		"sapUiChartValueAxisLabelFontSize": "0.75rem",
		"sapUiChartCategoryAxisLineColor": "rgba(204,204,204,0)",
		"sapUiChartValueAxisLineColor": "rgba(204,204,204,0)",
		"sapUiChartCategoryAxisTickColor": "rgba(204,204,204,0)",
		"sapUiChartValueAxisTickColor": "rgba(204,204,204,0)",
		"sapUiChartBackgroundColor": "transparent",
		"sapUiChartLabelFontWeight": "normal",
		"sapUiChartLegendLabelFontColor": "#333",
		"sapUiChartLegendTitleFontColor": "#000",
		"sapUiChartLegendTitleFontSize": "0.875rem",
		"sapUiChartLegendLabelFontSize": "0.75rem",
		"sapUiChartPaletteUndefinedColor": "#000",
		"sapUiChartGridlineColor": "rgba(229,229,229,0)",
		"sapUiChartReferenceLineColor": "rgba(51,51,51,0)",
		"sapUiChartDataLabelFontColor": "#000",
		"sapUiChartReferenceLineLabelColor": "#000",
		"sapUiChartDataLabelFontSize": "0.75rem",
		"sapUiChartPopoverDataItemFontColor": "#000",
		"sapUiChartPopoverGroupFontColor": "#333",
		"sapUiChartPopoverDataItemFontSize": "0.875rem",
		"sapUiChartPopoverGroupFontSize": "0.875rem",
		"sapUiChartPopoverGroupFontWeight": "bold",
		"sapUiChartScrollBarThumbColor": "#e6e6e6",
		"sapUiChartScrollBarTrackColor": "#fff",
		"sapUiChartScrollBarThumbHoverColor": "#dedede",
		"sapUiChartMainTitleFontColor": "#000",
		"sapUiChartAxisTitleFontColor": "#000",
		"sapUiChartMainTitleFontSize": "1rem",
		"sapUiChartAxisTitleFontSize": "0.875rem",
		"sapUiChartTitleFontWeight": "bold",
		"sapUiChartLightText": "#707070",
		"sapUiChartZeroAxisColor": "rgba(102,102,102,0)",
		"sapUiChartDataPointBorderColor": "#fff",
		"sapUiChartDataPointBorderHoverSelectedColor": "rgba(102,102,102,0)",
		"sapUiChartDataPointNotSelectedBackgroundOpacity": "0.6",
		"sapUiChartValueAxisLineOpacity": "0",
		"sapUiChartCategoryAxisLabelFontHoverColor": "#333",
		"sapUiChartCategoryAxisLabelFontPressedColor": "#333",
		"sapUiChartTargetColor": "rgba(51,51,51,0)",
		"sapUiChartTargetShadowColor": "#fff",
		"sapUiChartBubbleBGOpacity": "0.8",
		"sapUiChartScrollbarBorderColor": "#fff",
		"sapUiChartScrollbarBorderSize": "0",
		"sapUiChartScrollbarThumbPadding": "0",
		"sapUiChartNegativeLargeText": "#e35500",
		"sapUiChartCriticalLargeText": "#de890d",
		"sapUiChartPositiveLargeText": "#4fb81e",
		"sapUiChartNeutralLargeText": "#6a757b",
		"sapUiChartDataPointBG": "#d6dadb",
		"sapUiChartDataPointBGBorderColor": "#d6dadb",
		"sapUiChartDataLineColorWithBG": "rgba(51,51,51,0)",
		"sapUiChartDataLineColor": "rgba(51,51,51,0)",
		"sapUiChartRadialRemainingCircle": "#e3e6e7",
		"sapUiChartRadialRemainingCircleBorderColor": "#e3e6e7",
		"sapUiChartRadialBG": "#fff",
		"sapUiChartPaletteQualitativeHue1": "#5cbae6",
		"sapUiChartPaletteQualitativeHue2": "#b6d957",
		"sapUiChartPaletteQualitativeHue3": "#fac364",
		"sapUiChartPaletteQualitativeHue4": "#8cd3ff",
		"sapUiChartPaletteQualitativeHue5": "#d998cb",
		"sapUiChartPaletteQualitativeHue6": "#f2d249",
		"sapUiChartPaletteQualitativeHue7": "#93b9c6",
		"sapUiChartPaletteQualitativeHue8": "#ccc5a8",
		"sapUiChartPaletteQualitativeHue9": "#52bacc",
		"sapUiChartPaletteQualitativeHue10": "#dbdb46",
		"sapUiChartPaletteQualitativeHue11": "#98aafb",
		"sapUiChartPaletteSemanticBadLight3": "#ffb487",
		"sapUiChartPaletteSemanticBadLight2": "#ff9454",
		"sapUiChartPaletteSemanticBadLight1": "#ff7421",
		"sapUiChartPaletteSemanticBad": "#e35500",
		"sapUiChartPaletteSemanticBadDark1": "#be4801",
		"sapUiChartPaletteSemanticBadDark2": "#963801",
		"sapUiChartPaletteSemanticCriticalLight3": "#f8cc8c",
		"sapUiChartPaletteSemanticCriticalLight2": "#f5b04d",
		"sapUiChartPaletteSemanticCriticalLight1": "#f29b1d",
		"sapUiChartPaletteSemanticCritical": "#de890d",
		"sapUiChartPaletteSemanticCriticalDark1": "#c67a0c",
		"sapUiChartPaletteSemanticCriticalDark2": "#a4650a",
		"sapUiChartPaletteSemanticGoodLight3": "#a5eb84",
		"sapUiChartPaletteSemanticGoodLight2": "#7be24b",
		"sapUiChartPaletteSemanticGoodLight1": "#5cd723",
		"sapUiChartPaletteSemanticGood": "#4fb81e",
		"sapUiChartPaletteSemanticGoodDark1": "#429919",
		"sapUiChartPaletteSemanticGoodDark2": "#337613",
		"sapUiChartPaletteSemanticNeutralLight3": "#d6dadb",
		"sapUiChartPaletteSemanticNeutralLight2": "#bac1c4",
		"sapUiChartPaletteSemanticNeutralLight1": "#9ea8ad",
		"sapUiChartPaletteSemanticNeutral": "#848f94",
		"sapUiChartPaletteSemanticNeutralDark1": "#6a757b",
		"sapUiChartPaletteSemanticNeutralDark2": "#596368",
		"sapUiChartPaletteSequentialHue1Light3": "#abdbf2",
		"sapUiChartPaletteSequentialHue1Light2": "#84caec",
		"sapUiChartPaletteSequentialHue1Light1": "#5cbae5",
		"sapUiChartPaletteSequentialHue1": "#27a3dd",
		"sapUiChartPaletteSequentialHue1Dark1": "#1b7eac",
		"sapUiChartPaletteSequentialHue1Dark2": "#156489",
		"sapUiChartPaletteSequentialHue2Light3": "#d7eaa2",
		"sapUiChartPaletteSequentialHue2Light2": "#c6e17d",
		"sapUiChartPaletteSequentialHue2Light1": "#b6d957",
		"sapUiChartPaletteSequentialHue2": "#9dc62d",
		"sapUiChartPaletteSequentialHue2Dark1": "#759422",
		"sapUiChartPaletteSequentialHue2Dark2": "#5b731a",
		"sapUiChartPaletteSequentialHue3Light3": "#fde5bd",
		"sapUiChartPaletteSequentialHue3Light2": "#fbd491",
		"sapUiChartPaletteSequentialHue3Light1": "#fac364",
		"sapUiChartPaletteSequentialHue3": "#f8ac29",
		"sapUiChartPaletteSequentialHue3Dark1": "#dd8e07",
		"sapUiChartPaletteSequentialHue3Dark2": "#b57506",
		"sapUiChartPaletteSequentialNeutralLight3": "#d6dadb",
		"sapUiChartPaletteSequentialNeutralLight2": "#bac1c4",
		"sapUiChartPaletteSequentialNeutralLight1": "#9ea8ad",
		"sapUiChartPaletteSequentialNeutral": "#848f94",
		"sapUiChartPaletteSequentialNeutralDark1": "#6a757b",
		"sapUiChartPaletteSequentialNeutralDark2": "#596368",
		"sapUiChoroplethBG": "#f7f7f8",
		"sapUiChoroplethRegionBorder": "rgba(255,255,255,0)",
		"sapUiChoroplethRegionBG": "#bac1c4",
		"sapUiMapLegendBG": "#fff",
		"sapUiMapLegendBorderColor": "rgba(204,204,204,0)",
		"sapUiShellHoverBackground": "#000",
		"sapUiShellActiveBackground": "#000",
		"sapUiShellActiveTextColor": "#8c8c8c",
		"sapUiShellHoverToggleBackground": "#000",
		"sapUiShellContainerBackground": "#fff",
		"sapUiShellAltContainerBackground": "#b8b8b8",
		"sapUiUx3ShellHeaderColor": "transparent",
		"sapUiUx3ShellBackgroundColor": "#eff4f9",
		"sapUiUx3ShellHoverColor": "#787878",
		"sapUiUx3ShellGradientBottom": "transparent",
		"sapUiUx3ShellGradientTop": "rgba(0,0,0,0.03)",
		"sapUiUx3ShellToolPaletteIconFontColor": "#889eb1",
		"sapUiUx3ExactLstExpandOffset": "-1 -2",
		"sapUiUx3ExactLstRootExpandOffset": "0 3",
		"sapUiUx3ExactLstContentTop": "25px",
		"sapUiLinkActive": "#7d7d7d",
		"sapUiLinkVisited": "#7d7d7d",
		"sapUiLinkHover": "#7d7d7d",
		"sapUiLinkInverted": "#e3e3e3",
		"sapUiNotificationBarBG": "rgba(51,51,51,0.98)",
		"sapUiNotifierSeparator": "#000",
		"sapUiNotifierSeparatorWidth": "1px",
		"sapUiNotificationBarBorder": "#666",
		"sapUiUx3ToolPopupInverted": "false",
		"sapUiUx3ToolPopupArrowRightMarginCorrection": "-1px",
		"sapUiUx3ToolPopupShadow": "0px 6px 12px 0px rgba(0,0,0,0.3)",
		"sapUiCalloutShadow": "0px 6px 12px 0px rgba(0,0,0,0.3)",
		"sapUiButtonIconColor": "#000",
		"sapUiButtonActiveBackground": "#000",
		"sapUiButtonActiveBorderColor": "#000",
		"sapUiButtonActiveTextColor": "#333",
		"sapUiButtonEmphasizedHoverBackground": "#f2f2f2",
		"sapUiButtonEmphasizedHoverBorderColor": "#f2f2f2",
		"sapUiButtonEmphasizedActiveBackground": "#000",
		"sapUiButtonEmphasizedActiveBorderColor": "#000",
		"sapUiButtonEmphasizedTextShadow": "#000",
		"sapUiButtonAcceptBorderColor": "#4fb81e",
		"sapUiButtonAcceptHoverBackground": "#000",
		"sapUiButtonAcceptHoverBorderColor": "#4fb81e",
		"sapUiButtonAcceptActiveBackground": "#4fb81e",
		"sapUiButtonAcceptActiveBorderColor": "#4fb81e",
		"sapUiButtonAcceptTextColor": "#4fb81e",
		"sapUiButtonRejectBorderColor": "#e35500",
		"sapUiButtonRejectHoverBackground": "#000",
		"sapUiButtonRejectHoverBorderColor": "#e35500",
		"sapUiButtonRejectActiveBackground": "#e35500",
		"sapUiButtonRejectActiveBorderColor": "#e35500",
		"sapUiButtonRejectTextColor": "#e35500",
		"sapUiButtonLiteBackground": "transparent",
		"sapUiButtonLiteBorderColor": "transparent",
		"sapUiButtonLiteTextColor": "#333",
		"sapUiButtonLiteHoverBackground": "rgba(0,0,0,0.5)",
		"sapUiButtonLiteHoverBorderColor": "rgba(0,0,0,0.5)",
		"sapUiButtonLiteActiveBackground": "#000",
		"sapUiButtonLiteActiveBorderColor": "#000",
		"sapUiButtonHeaderTextColor": "#333",
		"sapUiButtonHeaderDisabledTextColor": "#333",
		"sapUiButtonFooterTextColor": "#333",
		"sapUiButtonFooterHoverBackground": "rgba(0,0,0,0.5)",
		"sapUiButtonActionSelectBackground": "#f2f2f2",
		"sapUiButtonActionSelectBorderColor": "rgba(0,0,0, 0.07)",
		"sapUiButtonLiteActionSelectHoverBackground": "#e3e3e3",
		"sapUiToggleButtonPressedBackground": "#000",
		"sapUiToggleButtonPressedBorderColor": "#000",
		"sapUiToggleButtonPressedTextColor": "#333",
		"sapUiToggleButtonPressedHoverBackground": "#1a1a1a",
		"sapUiToggleButtonPressedHoverBorderColor": "#1a1a1a",
		"sapUiSegmentedButtonBackground": "#fff",
		"sapUiSegmentedButtonBorderColor": "#141414",
		"sapUiSegmentedButtonTextColor": "#333",
		"sapUiSegmentedButtonHoverBackground": "#000",
		"sapUiSegmentedButtonActiveBackground": "#000",
		"sapUiSegmentedButtonActiveTextColor": "#333",
		"sapUiSegmentedButtonSelectedBackground": "#000",
		"sapUiSegmentedButtonSelectedTextColor": "#333",
		"sapUiSegmentedButtonSelectedHoverBackground": "#1a1a1a",
		"sapUiSegmentedButtonSelectedHoverBorderColor": "#1a1a1a",
		"sapUiSegmentedButtonIconColor": "#000",
		"sapUiSegmentedButtonActiveIconColor": "#000",
		"sapUiSegmentedButtonSelectedIconColor": "#000",
		"sapUiSegmentedButtonFooterBorderColor": "#141414",
		"sapUiSegmentedButtonFooterHoverBackground": "#000",
		"sapUiFieldActiveBackground": "#000",
		"sapUiFieldActiveBorderColor": "#000",
		"sapUiFieldActiveTextColor": "#fff",
		"sapUiFieldPlaceholderTextColor": "#757575",
		"sapUiListTextColor": "#333",
		"sapUiListVerticalBorderColor": "rgba(0,0,0,0.07)",
		"sapUiListActiveBackground": "#000",
		"sapUiListActiveTextColor": "#333",
		"sapUiListSelectionHoverBackground": "#c2c2c2",
		"sapUiListFooterBackground": "#e8e8e8",
		"sapUiListFooterTextColor": "#333",
		"sapUiListGroupHeaderBackground": "#f2f2f2",
		"sapUiListTableGroupHeaderBackground": "#e5e5e5",
		"sapUiListTableGroupHeaderBorderColor": "rgba(0,0,0,0.07)",
		"sapUiListTableGroupHeaderTextColor": "#4974bc",
		"sapUiListTableFooterBorder": "rgba(0,0,0,0.07)",
		"sapUiListTableFixedBorder": "rgba(0,0,0,0.07)",
		"sapUiListTableTextSize": "0.875rem",
		"sapUiListTableIconSize": "1rem",
		"sapUiPageFooterBorderColor": "#d5d5d5",
		"sapUiInfobarHoverBackground": "#5e5e5e",
		"sapUiInfobarActiveBackground": "#000",
		"sapUiObjectHeaderBorderColor": "#ebebeb",
		"sapUiCalendarColorToday": "#ab218e",
		"sapUiDragAndDropColor": "#878787",
		"sapUiDragAndDropBackground": "#fff",
		"sapUiDragAndDropBorderColor": "rgba(191,191,191, 0)",
		"sapUiDragAndDropActiveColor": "#7d7d7d",
		"sapUiDragAndDropActiveBackground": "rgba(125,125,125,0.05)",
		"sapUiDragAndDropActiveBorderColor": "#7d7d7d",
		"sapUiShadowLevel0": "0 0 0 1px rgba(0,0,0,0.15)",
		"sapUiShadowLevel1": "0 0.125rem 0.5rem 0 rgba(0,0,0,0.15), 0 0 0 1px rgba(0,0,0,0.15)",
		"sapUiShadowLevel2": "0 0.625rem 1.875rem 0 rgba(0,0,0,0.15), 0 0 0 1px rgba(0,0,0,0.15)",
		"sapUiShadowLevel3": "0 1.25rem 5rem 0 rgba(0,0,0,0.15), 0 0 0 1px rgba(0,0,0,0.15)",
		"sapUiShadowText": "0 0 0.125rem #fff",
		"sapUiShadowHeader": "inset 0 -0.125rem #ebebeb, 0 0.125rem 0 0 #fff",
		"sapUiUx3ShellHeaderImageURL": "",
		"sapUiUx3ShellApplicationImageURL": "none",
		"sapUiPurple": "purple",
		"sapUiOrange": "orange",
		"sapUiGreen": "green",
		"sapUiBlue": "blue",
		"sapUiRed": "red",
		"sapUiYellow": "yellow",
		"sapUiBase": "#000",
		"sapUiBaseBorder": "#000",
		"sapUiBaseLine": "#000",
		"sapUiWhite": "#FFFFFF",
		"sapUiWhiteBG": "#fff",
		"sapUiExtraLightBG": "#fff",
		"sapUiLightBG": "lightgray",
		"sapUiMediumBG": "gray",
		"sapUiDarkBG": "darkgray",
		"sapUiDeepBG": "black",
		"sapUiBlackBG": "#000000",
		"sapUiHoverBG": "grey",
		"sapUiMediumAltBG": "grey",
		"sapUiDarkAltBG": "darkgrey",
		"sapUiButtonStandardBG": "#fff",
		"sapUiButtonEmphasizedBG": "yellow",
		"sapUiButtonNegativeBG": "red",
		"sapUiButtonPositiveBG": "green",
		"sapUiReadOnlyBG": "grey",
		"sapUiExtraLightText": "lightgray",
		"sapUiLightText": "lightgray",
		"sapUiMediumText": "grey",
		"sapUiDarkText": "darkgrey",
		"sapUiDeepText": "black",
		"sapUiText": "#333",
		"sapUiTextInverted": "#fff",
		"sapUiWhiteBorder": "#fff",
		"sapUiExtraLightBorder": "lightgrey",
		"sapUiLightBorder": "grey",
		"sapUiMediumBorder": "#000",
		"sapUiDarkBorder": "#000",
		"sapUiBlackBorder": "#000",
		"sapUiElement": "lightgrey",
		"sapUiInvertedElement": "#ffffff",
		"sapUiLightLine": "lightgrey",
		"sapUiMediumLine": "grey",
		"sapUiEmphasizedLine": "#000",
		"sapUiDarkLine": "darkgrey",
		"sapUiLightShadowTint": "#ffffff",
		"sapUiDarkShadowTint": "#000000",
		"sapUiFocus": "#000000",
		"sapUiInvertedFocus": "#ffffff",
		"sapUiTableRowBG": "#FFFFFF",
		"sapUiTableRowAlternatingBG": "#FFFFFF",
		"sapUiTableRowSelectionBG": "#000",
		"sapUiTableRowSelectionReadOnlyBG": "#000",
		"sapUiTableRowHoverBG": "grey",
		"sapUiListBG": "#f7f7f7",
		"sapUiTextColor": "green",
		"sapUiTextTitleColor": "green",
		"sapUiTextSelectionColor": "green",
		"sapUiTextDisabled": "#ccc",
		"sapUiTextSelection": "#fff",
		"sapUiTextfieldBackground": "#FFFFFF",
		"sapUiFontMonospaceFamily": "Lucida Console",
		"sapUiUx3ShellSideBarBaseWidth": "40px",
		"sapUiUx3ShellPaneOverflowButtonHeight": "120px",
		"sapUiUx3ExactLstCollapseWidth": "24px",
		"sapUiUx3ExactLstHeaderHeight": "25px",
		"sapUiNotificationBarBG_IE": "grey",
		"sapUiNotifierHoverColor": "#000",
		"sapUiNotificationText": "#fff",
		"sapUiNotificationTimestamp": "#ababab",
		"sapUiNotificationBarCalloutBorder": "rgba(128,128,128,0)",
		"sapUiNotificationBarCalloutBorder_IE": "grey",
		"sapUiNotificationBarCalloutArr": "rgba(51,51,51,0.98)",
		"sapUiNotificationBarHeight": "40px",
		"sapUiNotificationBarHeightMinimized": "0px",
		"sapUiNotificationBarHeightMaximized": "40%",
		"sapUiNotifierWidth": "40px",
		"sapUiRIIconPaddingXS": "1px",
		"sapUiRIIconPaddingS": "0.125rem",
		"sapUiRIIconPaddingM": "0.1875rem",
		"sapUiRIIconPaddingL": "0.25rem",
		"sapUiRIIconPaddingCozy": "0.1875rem",
		"sapUiRIIconPaddingCompact": "0.125rem",
		"sapUiRIIconPaddingCondensed": "0.125rem",
		"sapUiRIIconSizeCozy": "1.375rem",
		"sapUiRIIconSizeCompact": "1rem",
		"sapUiRIIconSizeCondensed": "1rem",
		"sapUiUx3ToolPopupArrowWidth": "13px",
		"sapUiUx3ToolPopupArrowHeight": "24px",
		"sapUiUx3ToolPopupArrowRightMarginCorrectionInverted": "-7px",
		"sapUiUx3TPPaddingBottom": "50px",
		"sapUiButtonEmphasizedDisabledBorderColor": "#000",
		"sapUiButtonEmphasizedDisabledBackground": "#fff",
		"sapUiButtonAcceptDisabledBorderColor": "#4fb81e",
		"sapUiButtonAcceptDisabledBackground": "#fff",
		"sapUiButtonRejectDisabledBorderColor": "#e35500",
		"sapUiButtonRejectDisabledBackground": "#fff",
		"sapUiToggleButtonPressedDisabledBackground": "#000",
		"sapUiToggleButtonPressedDisabledBorderColor": "#000",
		"sapUiToggleButtonPressedDisabledTextColor": "#ccc",
		"sapUiPositiveBG": "#4fb81e",
		"sapUiShadowTint": "#000",
		"sapUiShadow": "5px 5px 10px rgba(0,0,0,0.5)",
		"sapUiThemeDesignerCustomCss": "true",
		"sapUiMarginTiny": "0.5rem",
		"sapUiMarginSmall": "1rem",
		"sapUiMarginMedium": "2rem",
		"sapUiMarginLarge": "3rem",
		"sapUiEscapedEmptyString": "",
		"sapUiLightBoxMagnifyingGlassBorder": "none",
		"sapUiLightBoxMagnifyingGlassBackgroundColor": "#7d7d7d",
		"sapBackgroundColorDefault": "#fafafa",
		"sapPrimary1": "#3f5161",
		"sapPrimary2": "#427cac",
		"sapPrimary3": "#eff4f9",
		"sapPrimary4": "#ffffff",
		"sapPrimary5": "#fafafa",
		"sapPrimary6": "#bfbfbf",
		"sapPrimary7": "#333333",
		"sapAccentColor1": "#e09d00",
		"sapAccentColor2": "#e6600d",
		"sapAccentColor3": "#c14646",
		"sapAccentColor4": "#ab218e",
		"sapAccentColor5": "#678bc7",
		"sapAccentColor6": "#0092d1",
		"sapAccentColor7": "#1a9898",
		"sapAccentColor8": "#759421",
		"sapErrorBackground": "#fff",
		"sapWarningBackground": "#fef0db",
		"sapSuccessBackground": "#fff",
		"sapNeutralBackground": "#f4f5f6",
		"sapErrorBorderColor": "#ff6e17",
		"sapWarningBorderColor": "#f9a429",
		"sapSuccessBorderColor": "#64dd2c",
		"sapNegativeTextColor": "#e35500",
		"sapCriticalTextColor": "#e78c07",
		"sapPositiveTextColor": "#4fb81e",
		"sapNeutralTextColor": "#5e696e",
		"sapErrorColor": "#ff6e17",
		"sapWarningColor": "#f9a429",
		"sapSuccessColor": "#64dd2c",
		"sapShell_BackgroundPatternColor": "#fff",
		"sapUiShellBackgroundPatternColor": "#fff",
		"sapUiPrimary1": "#3f5161",
		"sapUiPrimary2": "#427cac",
		"sapUiPrimary3": "#eff4f9",
		"sapUiPrimary4": "#ffffff",
		"sapUiPrimary5": "#fafafa",
		"sapUiPrimary6": "#bfbfbf",
		"sapUiPrimary7": "#333333"
	},
	"scopes": {
		"sapContrast": {
			"sapBrandColor": "#427cac",
			"sapHighlightColor": "#91c8f6",
			"sapBaseColor": "#3f5161",
			"sapBackgroundColor": "#3f5161",
			"sapTextColor": "#fafafa",
			"sapLinkColor": "#7ed0ff",
			"sapSelectedColor": "#91c8f6",
			"sapActiveColor": "#91c8f6",
			"sapHighlightTextColor": "#2f3c48",
			"sapTitleColor": "#fafafa",
			"sapNegativeColor": "#ff8888",
			"sapCriticalColor": "#fabd64",
			"sapPositiveColor": "#abe2ab",
			"sapNeutralColor": "#d3d7d9",
			"sapNegativeElementColor": "#ff8888",
			"sapCriticalElementColor": "#fabd64",
			"sapPositiveElementColor": "#abe2ab",
			"sapNeutralElementColor": "#d3d7d9",
			"sapContent_IconColor": "#cae4fb",
			"sapContent_ContrastIconColor": "#2f3c48",
			"sapContent_NonInteractiveIconColor": "#97aabb",
			"sapContent_MarkerIconColor": "#8ca7d5",
			"sapContent_FocusColor": "#fff",
			"sapContent_ContrastFocusColor": "#000",
			"sapContent_SearchHighlightColor": "#058088",
			"sapContent_LabelColor": "#ddd",
			"sapContent_DisabledTextColor": "rgba(250,250,250,0.5)",
			"sapContent_ContrastTextThreshold": "0.35",
			"sapContent_ContrastTextColor": "#2f3c48",
			"sapContent_ForegroundColor": "#4d6377",
			"sapContent_ForegroundBorderColor": "#889eb1",
			"sapContent_ForegroundTextColor": "#fafafa",
			"sapShell_Background": "#6585a3",
			"sapShell_BackgroundImage": "linear-gradient(to bottom, #2b4863, #9ebfde)",
			"sapShell_BackgroundGradient": "linear-gradient(to bottom, #2b4863, #9ebfde)",
			"sapShell_TextColor": "#fff",
			"sapButton_BorderCornerRadius": "3px",
			"sapButton_Background": "#435667",
			"sapButton_BorderColor": "#a0b2c1",
			"sapButton_TextColor": "#cae4fb",
			"sapButton_Hover_Background": "#4f657a",
			"sapButton_Hover_BorderColor": "#a0b2c1",
			"sapButton_Hover_TextColor": "#2f3c48",
			"sapButton_Emphasized_Background": "#5496cd",
			"sapButton_Emphasized_BorderColor": "#408ac7",
			"sapButton_Emphasized_TextColor": "#fff",
			"sapButton_Reject_Background": "#435667",
			"sapButton_Accept_Background": "#435667",
			"sapField_Background": "#495e70",
			"sapField_BorderColor": "#7891a7",
			"sapField_TextColor": "#fff",
			"sapField_HelpBackground": "#495e70",
			"sapField_Hover_Background": "#495e70",
			"sapField_Hover_BorderColor": "#91c8f6",
			"sapField_Hover_HelpBackground": "#91c8f6",
			"sapField_Focus_Background": "#495e70",
			"sapField_Focus_BorderColor": "#7891a7",
			"sapField_Focus_HelpBackground": "#495e70",
			"sapField_Disabled_TextColor": "rgba(255,255,255,0.5)",
			"sapField_ReadOnly_Background": "transparent",
			"sapField_ReadOnly_BorderColor": "#7891a7",
			"sapField_ReadOnly_HelpBackground": "transparent",
			"sapField_RequiredColor": "#d88b8b",
			"sapField_InvalidColor": "#ff8888",
			"sapField_InvalidBackground": "#495e70",
			"sapField_WarningColor": "#fabd64",
			"sapField_WarningBackground": "#495e70",
			"sapField_SuccessColor": "#abe2ab",
			"sapField_SuccessBackground": "#495e70",
			"sapGroup_TitleBorderColor": "#69859d",
			"sapGroup_TitleTextColor": "#fafafa",
			"sapGroup_ContentBackground": "#3f5161",
			"sapGroup_ContentBorderColor": "#4f667a",
			"sapToolbar_SeparatorColor": "rgba(239,244,249,0.2)",
			"sapList_HeaderBackground": "#3c4d5c",
			"sapList_HeaderBorderColor": "#4d6377",
			"sapList_HeaderTextColor": "#fafafa",
			"sapList_BorderColor": "#4d6377",
			"sapList_HighlightColor": "#427cac",
			"sapList_SelectionBackgroundColor": "#496b8a",
			"sapList_Background": "#3f5161",
			"sapList_Hover_Background": "#45596a",
			"sapScrollBar_FaceColor": "#0099db",
			"sapScrollBar_TrackColor": "#3f5161",
			"sapScrollBar_BorderColor": "#0099db",
			"sapScrollBar_SymbolColor": "#cae4fb",
			"sapScrollBar_Hover_FaceColor": "#00a4ea",
			"sapPageHeader_Background": "#3f5161",
			"sapPageHeader_BorderColor": "#4f667a",
			"sapPageHeader_TextColor": "#fafafa",
			"sapPageFooter_Background": "#2f3c48",
			"sapPageFooter_TextColor": "#fafafa",
			"sapInfobar_Background": "#168282",
			"sapObjectHeader_Background": "#3f5161",
			"sapTile_Background": "#3f5161",
			"sapTile_TitleTextColor": "#fafafa",
			"sapTile_TextColor": "#ddd",
			"sapTile_IconColor": "#83c0f6",
			"sapChart_Bad": "#f55556",
			"sapChart_Critical": "#f4ac44",
			"sapChart_Good": "#69c683",
			"sapChart_Neutral": "#9ea8ad",
			"sapChart_Sequence_1": "#5cbae5",
			"sapChart_Sequence_2": "#b6d957",
			"sapChart_Sequence_3": "#fac364",
			"sapChart_Sequence_Neutral": "#9ea8ad",
			"sapUiBrand": "#427cac",
			"sapUiHighlight": "#91c8f6",
			"sapUiBaseColor": "#3f5161",
			"sapUiBaseBG": "#3f5161",
			"sapUiGlobalBackgroundColor": "#3f5161",
			"sapUiBaseText": "#fafafa",
			"sapUiLink": "#7ed0ff",
			"sapUiSelected": "#91c8f6",
			"sapUiActive": "#91c8f6",
			"sapUiHighlightTextColor": "#2f3c48",
			"sapUiTextTitle": "#fafafa",
			"sapUiContentIconColor": "#cae4fb",
			"sapUiContentContrastIconColor": "#2f3c48",
			"sapUiContentNonInteractiveIconColor": "#97aabb",
			"sapUiContentMarkerIconColor": "#8ca7d5",
			"sapUiContentMarkerTextColor": "#b7cfe4",
			"sapUiContentImagePlaceholderBackground": "#69859d",
			"sapUiContentImagePlaceholderForegroundColor": "#495e70",
			"sapUiContentFocusColor": "#fff",
			"sapUiContentContrastFocusColor": "#000",
			"sapUiContentSearchHighlightColor": "#058088",
			"sapUiContentLabelColor": "#ddd",
			"sapUiContentDisabledTextColor": "rgba(250,250,250,0.5)",
			"sapUiContentContrastTextThreshold": "0.35",
			"sapUiContentContrastTextColor": "#2f3c48",
			"sapUiContentForegroundColor": "#4d6377",
			"sapUiContentForegroundBorderColor": "#889eb1",
			"sapUiContentForegroundTextColor": "#fafafa",
			"sapUiShellBackground": "#6585a3",
			"sapUiShellBackgroundImage": "linear-gradient(to bottom, #2b4863, #9ebfde)",
			"sapUiShellBackgroundGradient": "linear-gradient(to bottom, #2b4863, #9ebfde)",
			"sapUiShellTextColor": "#fff",
			"sapUiButtonBackground": "#435667",
			"sapUiButtonBorderColor": "#a0b2c1",
			"sapUiButtonTextColor": "#cae4fb",
			"sapUiButtonHoverBackground": "#4f657a",
			"sapUiButtonHoverBorderColor": "#a0b2c1",
			"sapUiButtonHoverTextColor": "#2f3c48",
			"sapUiButtonEmphasizedBackground": "#5496cd",
			"sapUiButtonEmphasizedBorderColor": "#408ac7",
			"sapUiButtonEmphasizedTextColor": "#fff",
			"sapUiButtonRejectBackground": "#435667",
			"sapUiButtonAcceptBackground": "#435667",
			"sapUiFieldBackground": "#495e70",
			"sapUiFieldBorderColor": "#7891a7",
			"sapUiFieldTextColor": "#fff",
			"sapUiFieldHelpBackground": "#495e70",
			"sapUiFieldHoverBackground": "#495e70",
			"sapUiFieldHoverBorderColor": "#91c8f6",
			"sapUiFieldHoverHelpBackground": "#91c8f6",
			"sapUiFieldFocusBackground": "#495e70",
			"sapUiFieldFocusBorderColor": "#7891a7",
			"sapUiFieldFocusHelpBackground": "#495e70",
			"sapUiFieldReadOnlyBackground": "transparent",
			"sapUiFieldReadOnlyBorderColor": "#7891a7",
			"sapUiFieldReadOnlyHelpBackground": "transparent",
			"sapUiFieldDisabledTextColor": "rgba(255,255,255,0.5)",
			"sapUiFieldRequiredColor": "#d88b8b",
			"sapUiFieldInvalidColor": "#ff8888",
			"sapUiFieldInvalidBackground": "#495e70",
			"sapUiFieldWarningColor": "#fabd64",
			"sapUiFieldWarningBackground": "#495e70",
			"sapUiFieldSuccessColor": "#abe2ab",
			"sapUiFieldSuccessBackground": "#495e70",
			"sapUiGroupTitleBorderColor": "#69859d",
			"sapUiGroupTitleTextColor": "#fafafa",
			"sapUiGroupContentBackground": "#3f5161",
			"sapUiGroupContentBorderColor": "#4f667a",
			"sapUiToolbarSeparatorColor": "rgba(239,244,249,0.2)",
			"sapUiListHeaderBackground": "#3c4d5c",
			"sapUiListHeaderBorderColor": "#4d6377",
			"sapUiListHeaderTextColor": "#fafafa",
			"sapUiListBorderColor": "#4d6377",
			"sapUiListHighlightColor": "#427cac",
			"sapUiListSelectionBackgroundColor": "#496b8a",
			"sapUiListBackground": "#3f5161",
			"sapUiListHoverBackground": "#45596a",
			"sapUiScrollBarFaceColor": "#0099db",
			"sapUiScrollBarTrackColor": "#3f5161",
			"sapUiScrollBarBorderColor": "#0099db",
			"sapUiScrollBarSymbolColor": "#cae4fb",
			"sapUiScrollBarHoverFaceColor": "#00a4ea",
			"sapUiPageHeaderBackground": "#3f5161",
			"sapUiPageHeaderBorderColor": "#4f667a",
			"sapUiPageHeaderTextColor": "#fafafa",
			"sapUiPageFooterBackground": "#2f3c48",
			"sapUiPageFooterTextColor": "#fafafa",
			"sapUiInfobarBackground": "#168282",
			"sapUiObjectHeaderBackground": "#3f5161",
			"sapUiTileBackground": "#3f5161",
			"sapUiTileTitleTextColor": "#fafafa",
			"sapUiTileTextColor": "#ddd",
			"sapUiTileIconColor": "#83c0f6",
			"sapUiChartBad": "#f55556",
			"sapUiChartCritical": "#f4ac44",
			"sapUiChartGood": "#69c683",
			"sapUiChartNeutral": "#9ea8ad",
			"sapUiChartSequence1": "#5cbae5",
			"sapUiChartSequence2": "#b6d957",
			"sapUiChartSequence3": "#fac364",
			"sapUiChartSequenceNeutral": "#9ea8ad",
			"sapUiErrorBG": "#500",
			"sapUiWarningBG": "#5c3803",
			"sapUiSuccessBG": "#174417",
			"sapUiNeutralBG": "#393e41",
			"sapUiErrorBorder": "#ff8888",
			"sapUiWarningBorder": "#fabd64",
			"sapUiSuccessBorder": "#abe2ab",
			"sapUiNeutralBorder": "#d3d7d9",
			"sapUiNegativeElement": "#ff8888",
			"sapUiCriticalElement": "#fabd64",
			"sapUiPositiveElement": "#abe2ab",
			"sapUiNeutralElement": "#d3d7d9",
			"sapUiNegativeText": "#ff8888",
			"sapUiCriticalText": "#fabd64",
			"sapUiPositiveText": "#abe2ab",
			"sapUiNeutralText": "#d3d7d9",
			"sapUiNegative": "#ff8888",
			"sapUiCritical": "#fabd64",
			"sapUiPositive": "#abe2ab",
			"sapUiNeutral": "#d3d7d9",
			"sapUiErrorColor": "#fbb",
			"sapUiWarningColor": "#fcd295",
			"sapUiSuccessColor": "#d1efd1",
			"sapUiChartLabelHoverColor": "#4f657a",
			"sapUiChartLabelPressedColor": "#427cac",
			"sapUiChartCategoryAxisLabelFontColor": "#fafafa",
			"sapUiChartValueAxisLabelFontColor": "#fafafa",
			"sapUiChartCategoryAxisLineColor": "#ccc",
			"sapUiChartValueAxisLineColor": "#ccc",
			"sapUiChartCategoryAxisTickColor": "#ccc",
			"sapUiChartValueAxisTickColor": "#ccc",
			"sapUiChartLegendLabelFontColor": "#fafafa",
			"sapUiChartLegendTitleFontColor": "#fafafa",
			"sapUiChartPaletteUndefinedColor": "#fafafa",
			"sapUiChartGridlineColor": "#999",
			"sapUiChartReferenceLineColor": "#fff",
			"sapUiChartDataLabelFontColor": "#fafafa",
			"sapUiChartReferenceLineLabelColor": "#fafafa",
			"sapUiChartPopoverDataItemFontColor": "#fafafa",
			"sapUiChartPopoverGroupFontColor": "#fafafa",
			"sapUiChartScrollBarThumbColor": "#0099db",
			"sapUiChartScrollBarTrackColor": "#3f5161",
			"sapUiChartScrollBarThumbHoverColor": "#00a4ea",
			"sapUiChartMainTitleFontColor": "#fafafa",
			"sapUiChartAxisTitleFontColor": "#fafafa",
			"sapUiChartLightText": "#fafafa",
			"sapUiChartZeroAxisColor": "#fff",
			"sapUiChartDataPointBorderColor": "#3f5161",
			"sapUiChartDataPointBorderHoverSelectedColor": "#fff",
			"sapUiChartDataPointNotSelectedBackgroundOpacity": "0.7",
			"sapUiChartCategoryAxisLabelFontHoverColor": "#fafafa",
			"sapUiChartCategoryAxisLabelFontPressedColor": "#fafafa",
			"sapUiChartTargetColor": "#fff",
			"sapUiChartTargetShadowColor": "#000",
			"sapUiChartBubbleBGOpacity": "0.9",
			"sapUiChartScrollbarBorderColor": "#0099db",
			"sapUiChartNegativeLargeText": "#f77c7c",
			"sapUiChartCriticalLargeText": "#f7c174",
			"sapUiChartPositiveLargeText": "#a0dbb1",
			"sapUiChartNeutralLargeText": "#f1f2f3",
			"sapUiChartDataPointBG": "#848f94",
			"sapUiChartDataPointBGBorderColor": "#848f94",
			"sapUiChartDataLineColorWithBG": "#333",
			"sapUiChartDataLineColor": "#fff",
			"sapUiChartRadialRemainingCircle": "#848f94",
			"sapUiChartRadialRemainingCircleBorderColor": "#848f94",
			"sapUiChartRadialBG": "transparent",
			"sapUiChartPaletteSemanticBadLight3": "#fbc4c4",
			"sapUiChartPaletteSemanticBadLight2": "#f99d9e",
			"sapUiChartPaletteSemanticBadLight1": "#f77c7c",
			"sapUiChartPaletteSemanticBad": "#f55556",
			"sapUiChartPaletteSemanticBadDark1": "#f33334",
			"sapUiChartPaletteSemanticBadDark2": "#ef0e0f",
			"sapUiChartPaletteSemanticCriticalLight3": "#fdecd5",
			"sapUiChartPaletteSemanticCriticalLight2": "#fad7a4",
			"sapUiChartPaletteSemanticCriticalLight1": "#f7c174",
			"sapUiChartPaletteSemanticCritical": "#f4ac44",
			"sapUiChartPaletteSemanticCriticalDark1": "#f19714",
			"sapUiChartPaletteSemanticCriticalDark2": "#de890d",
			"sapUiChartPaletteSemanticGoodLight3": "#d8f0df",
			"sapUiChartPaletteSemanticGoodLight2": "#b3e2c0",
			"sapUiChartPaletteSemanticGoodLight1": "#8ed4a2",
			"sapUiChartPaletteSemanticGood": "#69c683",
			"sapUiChartPaletteSemanticGoodDark1": "#45b765",
			"sapUiChartPaletteSemanticGoodDark2": "#3fa45b",
			"sapUiChartPaletteSemanticNeutralLight3": "#f1f2f3",
			"sapUiChartPaletteSemanticNeutralLight2": "#d5dadc",
			"sapUiChartPaletteSemanticNeutralLight1": "#bac1c4",
			"sapUiChartPaletteSemanticNeutral": "#9ea8ad",
			"sapUiChartPaletteSemanticNeutralDark1": "#848f94",
			"sapUiChartPaletteSemanticNeutralDark2": "#69767c",
			"sapUiChartPaletteSequentialHue1Light3": "#d7eef9",
			"sapUiChartPaletteSequentialHue1Light2": "#abdcf2",
			"sapUiChartPaletteSequentialHue1Light1": "#84cbeb",
			"sapUiChartPaletteSequentialHue1": "#5cbae5",
			"sapUiChartPaletteSequentialHue1Dark1": "#26a4de",
			"sapUiChartPaletteSequentialHue1Dark2": "#1a7eac",
			"sapUiChartPaletteSequentialHue2Light3": "#e9f3cb",
			"sapUiChartPaletteSequentialHue2Light2": "#d7eaa2",
			"sapUiChartPaletteSequentialHue2Light1": "#c6e17c",
			"sapUiChartPaletteSequentialHue2": "#b6d957",
			"sapUiChartPaletteSequentialHue2Dark1": "#9dc62d",
			"sapUiChartPaletteSequentialHue2Dark2": "#759421",
			"sapUiChartPaletteSequentialHue3Light3": "#fef9ee",
			"sapUiChartPaletteSequentialHue3Light2": "#fde5bd",
			"sapUiChartPaletteSequentialHue3Light1": "#fbd491",
			"sapUiChartPaletteSequentialHue3": "#fac364",
			"sapUiChartPaletteSequentialHue3Dark1": "#f8ac29",
			"sapUiChartPaletteSequentialHue3Dark2": "#dc8e07",
			"sapUiChartPaletteSequentialNeutralLight3": "#f1f2f3",
			"sapUiChartPaletteSequentialNeutralLight2": "#d5dadc",
			"sapUiChartPaletteSequentialNeutralLight1": "#b9c1c5",
			"sapUiChartPaletteSequentialNeutral": "#9ea8ad",
			"sapUiChartPaletteSequentialNeutralDark1": "#848f94",
			"sapUiChartPaletteSequentialNeutralDark2": "#69767c",
			"sapUiChoroplethBG": "#7999a9",
			"sapUiChoroplethRegionBorder": "#fff",
			"sapUiChoroplethRegionBG": "#d5dadc",
			"sapUiMapLegendBG": "#3f5161",
			"sapUiMapLegendBorderColor": "#fff",
			"sapUiShellHoverBackground": "#eff4f9",
			"sapUiShellActiveBackground": "#eff4f9",
			"sapUiShellActiveTextColor": "#2e5778",
			"sapUiShellHoverToggleBackground": "#fff",
			"sapUiShellContainerBackground": "#c4d8eb",
			"sapUiShellAltContainerBackground": "#1b2e40",
			"sapUiUx3ShellGradientTop": "rgba(145,185,246,0.03)",
			"sapUiLinkActive": "#7ed0ff",
			"sapUiLinkVisited": "#7ed0ff",
			"sapUiLinkHover": "#7ed0ff",
			"sapUiLinkInverted": "#fff",
			"sapUiButtonIconColor": "#cae4fb",
			"sapUiButtonActiveBackground": "#91c8f6",
			"sapUiButtonActiveBorderColor": "#91c8f6",
			"sapUiButtonActiveTextColor": "#2f3c48",
			"sapUiButtonEmphasizedHoverBackground": "#408ac7",
			"sapUiButtonEmphasizedHoverBorderColor": "#408ac7",
			"sapUiButtonEmphasizedActiveBackground": "#91c8f6",
			"sapUiButtonEmphasizedActiveBorderColor": "#91c8f6",
			"sapUiButtonAcceptBorderColor": "#abe2ab",
			"sapUiButtonAcceptHoverBackground": "#4f657a",
			"sapUiButtonAcceptHoverBorderColor": "#abe2ab",
			"sapUiButtonAcceptActiveBackground": "#abe2ab",
			"sapUiButtonAcceptActiveBorderColor": "#abe2ab",
			"sapUiButtonAcceptTextColor": "#abe2ab",
			"sapUiButtonRejectBorderColor": "#ff8888",
			"sapUiButtonRejectHoverBackground": "#4f657a",
			"sapUiButtonRejectHoverBorderColor": "#ff8888",
			"sapUiButtonRejectActiveBackground": "#ff8888",
			"sapUiButtonRejectActiveBorderColor": "#ff8888",
			"sapUiButtonRejectTextColor": "#f88",
			"sapUiButtonLiteTextColor": "#cae4fb",
			"sapUiButtonLiteHoverBackground": "rgba(99,127,153,0.5)",
			"sapUiButtonLiteHoverBorderColor": "rgba(99,127,153,0.5)",
			"sapUiButtonLiteActiveBackground": "#91c8f6",
			"sapUiButtonLiteActiveBorderColor": "#91c8f6",
			"sapUiButtonHeaderTextColor": "#cae4fb",
			"sapUiButtonHeaderDisabledTextColor": "#cae4fb",
			"sapUiButtonFooterTextColor": "#cae4fb",
			"sapUiButtonFooterHoverBackground": "rgba(99,127,153,0.5)",
			"sapUiButtonActionSelectBackground": "#2f3c48",
			"sapUiButtonActionSelectBorderColor": "#4d6377",
			"sapUiButtonLiteActionSelectHoverBackground": "#354451",
			"sapUiToggleButtonPressedBackground": "#62b0f2",
			"sapUiToggleButtonPressedBorderColor": "#4aa4f0",
			"sapUiToggleButtonPressedTextColor": "#2f3c48",
			"sapUiToggleButtonPressedHoverBackground": "#91c8f6",
			"sapUiToggleButtonPressedHoverBorderColor": "#91c8f6",
			"sapUiSegmentedButtonBackground": "#435667",
			"sapUiSegmentedButtonBorderColor": "#8199ad",
			"sapUiSegmentedButtonTextColor": "#cae4fb",
			"sapUiSegmentedButtonHoverBackground": "#4f657a",
			"sapUiSegmentedButtonActiveBackground": "#91c8f6",
			"sapUiSegmentedButtonActiveTextColor": "#2f3c48",
			"sapUiSegmentedButtonSelectedBackground": "#62b0f2",
			"sapUiSegmentedButtonSelectedTextColor": "#2f3c48",
			"sapUiSegmentedButtonSelectedHoverBackground": "#91c8f6",
			"sapUiSegmentedButtonSelectedHoverBorderColor": "#91c8f6",
			"sapUiSegmentedButtonIconColor": "#cae4fb",
			"sapUiSegmentedButtonActiveIconColor": "#2f3c48",
			"sapUiSegmentedButtonSelectedIconColor": "#2f3c48",
			"sapUiSegmentedButtonFooterBorderColor": "#a0b2c1",
			"sapUiSegmentedButtonFooterHoverBackground": "#4f657a",
			"sapUiFieldActiveBackground": "#91c8f6",
			"sapUiFieldActiveBorderColor": "#91c8f6",
			"sapUiFieldActiveTextColor": "#2f3c48",
			"sapUiFieldPlaceholderTextColor": "#c3d7e8",
			"sapUiListTextColor": "#fafafa",
			"sapUiListVerticalBorderColor": "#536b80",
			"sapUiListActiveBackground": "#427cac",
			"sapUiListActiveTextColor": "#fff",
			"sapUiListSelectionHoverBackground": "#4e7394",
			"sapUiListFooterBackground": "#2f3c48",
			"sapUiListFooterTextColor": "#fafafa",
			"sapUiListGroupHeaderBackground": "#3f5161",
			"sapUiListTableGroupHeaderBackground": "#3b4c5b",
			"sapUiListTableGroupHeaderBorderColor": "#69859e",
			"sapUiListTableGroupHeaderTextColor": "#b7cfe4",
			"sapUiListTableFooterBorder": "#69859e",
			"sapUiListTableFixedBorder": "#9dafc0",
			"sapUiPageFooterBorderColor": "#475b6d",
			"sapUiInfobarHoverBackground": "#147575",
			"sapUiInfobarActiveBackground": "#427cac",
			"sapUiObjectHeaderBorderColor": "#4f667a",
			"sapUiCalendarColorToday": "#e57acf",
			"sapUiDragAndDropColor": "#97aabb",
			"sapUiDragAndDropBackground": "#3f5161",
			"sapUiDragAndDropBorderColor": "#889eb1",
			"sapUiDragAndDropActiveColor": "#7ed0ff",
			"sapUiDragAndDropActiveBackground": "rgba(126,208,255,0.1)",
			"sapUiDragAndDropActiveBorderColor": "#7ed0ff",
			"sapUiShadowLevel0": "0 0 0 1px rgba(255,255,255,0.2)",
			"sapUiShadowLevel1": "0 0.125rem 0.5rem 0 rgba(0,0,0,0.2), 0 0 0 1px rgba(255,255,255,0.2)",
			"sapUiShadowLevel2": "0 0.625rem 1.875rem 0 rgba(0,0,0,0.2), 0 0 0 1px rgba(255,255,255,0.2)",
			"sapUiShadowLevel3": "0 1.25rem 5rem 0 rgba(0,0,0,0.2), 0 0 0 1px rgba(255,255,255,0.2)",
			"sapUiShadowText": "0 0 0.125rem #000",
			"sapUiShadowHeader": "inset 0 -0.125rem #4f667a, 0 0.125rem 0 0 #3f5161",
			"sapUiUx3ShellHeaderImageURL": "",
			"sapUiExtraLightBG": "#3f5161",
			"sapUiButtonStandardBG": "#3f5161",
			"sapUiText": "#fafafa",
			"sapUiEmphasizedLine": "#91c8f6",
			"sapUiTableRowSelectionBG": "#91c8f6",
			"sapUiTableRowSelectionReadOnlyBG": "#91c8f6",
			"sapUiTextDisabled": "#fff",
			"sapUiNotifierHoverColor": "#91c8f6",
			"sapUiNotificationTimestamp": "#fff",
			"sapUiButtonEmphasizedDisabledBorderColor": "#408ac7",
			"sapUiButtonEmphasizedDisabledBackground": "#5496cd",
			"sapUiButtonAcceptDisabledBorderColor": "#abe2ab",
			"sapUiButtonAcceptDisabledBackground": "#435667",
			"sapUiButtonRejectDisabledBorderColor": "#ff8888",
			"sapUiButtonRejectDisabledBackground": "#435667",
			"sapUiToggleButtonPressedDisabledBackground": "#62b0f2",
			"sapUiToggleButtonPressedDisabledBorderColor": "#4aa4f0",
			"sapUiToggleButtonPressedDisabledTextColor": "#f2f8fe",
			"sapUiPositiveBG": "#abe2ab",
			"sapUiThemeDesignerCustomCss": "false",
			"sapUiEscapedEmptyString": "",
			"sapUiLightBoxMagnifyingGlassBackgroundColor": "#7ed0ff",
			"sapBackgroundColorDefault": "#3f5161",
			"sapErrorBackground": "#500",
			"sapWarningBackground": "#5c3803",
			"sapSuccessBackground": "#174417",
			"sapNeutralBackground": "#393e41",
			"sapErrorBorderColor": "#ff8888",
			"sapWarningBorderColor": "#fabd64",
			"sapSuccessBorderColor": "#abe2ab",
			"sapNegativeTextColor": "#ff8888",
			"sapCriticalTextColor": "#fabd64",
			"sapPositiveTextColor": "#abe2ab",
			"sapNeutralTextColor": "#d3d7d9",
			"sapErrorColor": "#ff8888",
			"sapWarningColor": "#fabd64",
			"sapSuccessColor": "#abe2ab",
			"sapShell_BackgroundPatternColor": "rgba(255,255,255,0.08)",
			"sapUiShellBackgroundPatternColor": "rgba(255,255,255,0.08)"
		}
	}
}