{
	"zipInfo": {
		"creatorName": "Theming Engine",
		"creatorVersion": "1.28.3",
		"created": "2017-10-10T14:01:44Z",
		"lessVersion": "1.6.3",
		"compression": "none",
		"exportMode": "ALL_LOCAL"
	},
	"contentInfo": {
		"sourcePath": "https://themedesigner-a2b30ffcb.dispatcher.hana.ondemand.com/themeroot/1.48.9/~1507413600000~",
		"frameworks": {
			"UI5": {
				"version": "1.48.9"
			},
			"Base": {
				"version": "11.0.3"
			}
		},
		"libraries": {
			"UI5.sap/ca/ui": {
				"version": "1.48.0"
			},
			"UI5.sap/f": {
				"version": "1.48.8"
			},
			"UI5.sap/fiori": {
				"version": "1.48.9"
			},
			"UI5.sap/gantt": {
				"version": "1.48.5"
			},
			"UI5.sap/m": {
				"version": "1.48.8"
			},
			"UI5.sap/me": {
				"version": "1.48.8"
			},
			"UI5.sap/ovp": {
				"version": "1.48.6"
			},
			"UI5.sap/rules/ui": {
				"version": "1.48.1"
			},
			"UI5.sap/suite/ui/commons": {
				"version": "1.48.6"
			},
			"UI5.sap/suite/ui/generic/template": {
				"version": "1.48.7"
			},
			"UI5.sap/suite/ui/microchart": {
				"version": "1.48.8"
			},
			"UI5.sap/tnt": {
				"version": "1.48.8"
			},
			"UI5.sap/ui/codeeditor": {
				"version": "1.48.8"
			},
			"UI5.sap/ui/commons": {
				"version": "1.48.8"
			},
			"UI5.sap/ui/comp": {
				"version": "1.48.8"
			},
			"UI5.sap/ui/core": {
				"version": "1.48.8"
			},
			"UI5.sap/ui/dt": {
				"version": "1.48.8"
			},
			"UI5.sap/ui/layout": {
				"version": "1.48.8"
			},
			"UI5.sap/ui/mdc": {
				"version": "1.48.8"
			},
			"UI5.sap/ui/richtexteditor": {
				"version": "1.48.8"
			},
			"UI5.sap/ui/rta": {
				"version": "1.48.8"
			},
			"UI5.sap/ui/suite": {
				"version": "1.48.8"
			},
			"UI5.sap/ui/support": {
				"version": "1.48.8"
			},
			"UI5.sap/ui/table": {
				"version": "1.48.8"
			},
			"UI5.sap/ui/unified": {
				"version": "1.48.8"
			},
			"UI5.sap/ui/ux3": {
				"version": "1.48.8"
			},
			"UI5.sap/ui/vbm": {
				"version": "1.48.5"
			},
			"UI5.sap/ui/vk": {
				"version": "1.48.2"
			},
			"UI5.sap/ushell": {
				"version": "1.48.7"
			},
			"UI5.sap/uxap": {
				"version": "1.48.8"
			},
			"UI5.sap/viz": {
				"version": "1.48.8"
			},
			"UI5.sap/zen/commons": {
				"version": "1.48.7"
			},
			"UI5.sap/zen/crosstab": {
				"version": "1.48.7"
			},
			"Base.baseLib": {
				"version": "11.0.3"
			}
		},
		"themes": {
			"cxcwebsite34": {
				"id": "cxcwebsite34",
				"extends": "sap_belize",
				"label": "cxcwebsite34",
				"vendor": "",
				"textDirections": "LTR"
			},
			"cxcwebsite34--Contrast": {
				"id": "cxcwebsite34--Contrast",
				"extends": "sap_belize_plus",
				"label": "",
				"vendor": "",
				"textDirections": ""
			}
		}
	}
}